MCNP Input file
c ################## CELLS ######################
10 10001 0.1 -101 -999                          imp:n=1
11     0          -999 +101                      imp:n=1
c
99     0          +999                           imp:n=0
c
c
c
c

c ################ SURFACES #####################
101 cx 0.00001   $Interaction sphere
999 so 1.0     $Unit sphere
c
c
c
c
c

c ################ MATERIALS ####################
m10001 6000.80c -1
c
c
c
c
c ################## SOURCE #####################
mode n
sdef x=-0.999999 erg=d1 vec=1 0 0 dir=1.0
si1 H 9.6022e-03 9.7089e-03 9.8156e-03 9.9222e-03 1.0029e-02 1.0136e-02 
         1.0242e-02 1.0349e-02 1.0456e-02 1.0562e-02 1.0669e-02 
sp1 0.0 8.2324e-04 8.1510e-04 8.0697e-04 7.9883e-04 7.9069e-04 
         7.8255e-04 7.7441e-04 7.6627e-04 7.5813e-04 7.4999e-04 
c
c
c
c ################# TALLIES #####################
c ================= Main angular tally
F1:n 101
c1 -0.9999999 -0.995 100i 0.995 0.9999999 1.000
ft1 inc frv 1 0 0
fu1 0 1 NT
c
c
c
c ================= Tally of total uncollided, once collided
c                   and multi-collided particles.
c                   This tally should have multi-collided
c                   as small as possible, else
c                   the mfp combination with atomdensity and
c                   sphere size is inappropriate.
f11:n 101
ft11 inc
fu11 0 1 20
e11 20.0
c
c
c
c
c ================= Total reaction rates
f4:n 10
fm4 -1 10001 -1
c
c
c ================= Total absorption rate
f14:n 10
fm14 -1 10001 -2
c
c ================= Flux
f24:n 10
c
e0    6.000e-11 2.000e-10 6.000e-10 1.822e-09 4.971e-09 
      6.180e-09 7.289e-09 8.616e-09 9.060e-09 1.140e-08 
      1.355e-08 1.360e-08 1.537e-08 1.550e-08 1.740e-08 
      1.920e-08 2.084e-08 2.100e-08 2.280e-08 2.450e-08 
      2.630e-08 2.800e-08 2.970e-08 2.995e-08 3.150e-08 
      3.330e-08 3.510e-08 3.700e-08 3.890e-08 4.080e-08 
      4.280e-08 4.300e-08 4.490e-08 4.700e-08 4.930e-08 
      5.160e-08 5.400e-08 5.660e-08 5.930e-08 6.220e-08 
      6.530e-08 6.870e-08 7.230e-08 7.640e-08 8.090e-08 
      8.600e-08 9.200e-08 9.920e-08 1.014e-07 1.036e-07 
      1.058e-07 1.080e-07 1.112e-07 1.145e-07 1.178e-07 
      1.210e-07 1.263e-07 1.315e-07 1.368e-07 1.420e-07 
      1.525e-07 1.630e-07 1.735e-07 1.840e-07 1.975e-07 
      2.110e-07 2.245e-07 2.380e-07 2.557e-07 2.735e-07 
      2.913e-07 3.090e-07 3.317e-07 3.545e-07 3.773e-07 
      4.000e-07 4.406e-07 4.812e-07 5.218e-07 5.623e-07 
      6.718e-07 7.812e-07 8.906e-07 1.000e-06 1.195e-06 
      1.389e-06 1.584e-06 1.778e-06 2.124e-06 2.470e-06 
      2.816e-06 3.162e-06 3.778e-06 4.393e-06 5.008e-06 
      5.623e-06 6.718e-06 7.812e-06 8.906e-06 1.000e-05 
      1.132e-05 1.258e-05 1.398e-05 1.553e-05 1.725e-05 
      1.917e-05 2.130e-05 2.367e-05 2.630e-05 2.922e-05 
      3.247e-05 3.608e-05 4.008e-05 4.454e-05 4.949e-05 
      5.499e-05 6.110e-05 6.788e-05 7.543e-05 8.381e-05 
      9.312e-05 1.035e-04 1.150e-04 1.277e-04 1.419e-04 
      1.577e-04 1.752e-04 1.947e-04 2.163e-04 2.404e-04 
      2.671e-04 2.967e-04 3.297e-04 3.663e-04 4.071e-04 
      4.523e-04 5.025e-04 5.584e-04 6.204e-04 6.893e-04 
      7.659e-04 8.510e-04 9.456e-04 1.051e-03 1.167e-03 
      1.297e-03 1.441e-03 1.601e-03 1.779e-03 1.977e-03 
      2.197e-03 2.441e-03 2.712e-03 3.013e-03 3.348e-03 
      3.720e-03 4.133e-03 4.593e-03 5.103e-03 5.670e-03 
      6.300e-03 7.000e-03 7.778e-03 8.642e-03 9.602e-03 
      1.067e-02 1.185e-02 1.317e-02 1.464e-02 1.626e-02 
      1.807e-02 2.008e-02 2.231e-02 2.479e-02 2.754e-02 
      3.060e-02 3.400e-02 3.778e-02 4.197e-02 4.664e-02 
      5.182e-02 5.758e-02 6.397e-02 7.108e-02 7.898e-02 
      8.776e-02 9.751e-02 1.083e-01 1.204e-01 1.338e-01 
      1.486e-01 1.651e-01 1.835e-01 2.039e-01 2.265e-01 
      2.517e-01 2.797e-01 3.107e-01 3.452e-01 3.836e-01 
      4.262e-01 4.736e-01 5.262e-01 5.847e-01 6.496e-01 
      7.218e-01 8.020e-01 8.911e-01 9.901e-01 1.100e+00 
      1.222e+00 1.358e+00 1.509e+00 1.677e+00 1.863e+00 
      2.070e+00 2.078e+00 2.200e+00 2.600e+00 2.815e+00 
      2.863e+00 2.975e+00 3.081e+00 3.336e+00 4.002e+00 
      4.801e+00 4.943e+00 5.355e+00 5.430e+00 6.277e+00 
      6.339e+00 6.572e+00 7.247e+00 7.711e+00 8.254e+00 
      8.500e+00 9.000e+00 9.500e+00 1.000e+01 1.050e+01 
      1.100e+01 
c
c
c ################## PROBLEM ####################
c 14400e6 takes    20 min on 144 quartz cores 
c 72000e6 takes 1hr40 min on 144 quartz cores 
c 72000e6 takes    50 min on 288 quartz cores 
nps 14400e6
c
c
c
c
c ##################### EOF #####################


